{
  "web": {
    "client_id": "1051881371711-p1k0n4ea160g680u23a9biknd8dlc341.apps.googleusercontent.com",
    "project_id": "zoomstats-1605271087811",
    "auth_uri": "https://accounts.google.com/o/oauth2/auth",
    "token_uri": "https://oauth2.googleapis.com/token",
    "auth_provider_x509_cert_url": "https://www.googleapis.com/oauth2/v1/certs",
    "client_secret": "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",
    "redirect_uris": [
      "https://zoomapiforwebinars.euwest01.umbraco.io"
    ],
    "javascript_origins": [
      "https://zoomapiforwebinars.euwest01.umbraco.io"
    ]
  }
}